0
0
0
0
0
0
0
0
0
0
0
0
0
0
0
0
0
0
0
0
0
0
0
0
0
0
0
0
0
0
0
0
0
0
0
0
0
0
0
0
0
0
0
0
0
0
0
0
0
0
0
0
0
0
0
0
0
0
0
0
0
0
0
0
0
0
0
0
0
0
0
0
0
0
0
0
0
0
0
0
100
85
78
80
92
81
113
105
95
103
77
82
91
100
83
97
92
79
78
84
100
87
80
76
90
92
89
80
89
88
79
83
86
76
79
96
91
102
79
89
90
87
81
88
78
97
102
77
79
75
82
77
92
87
70
99
73
84
96
91
92
90
97
87
98
90
95
81
79
88
89
79
95
81
73
100
76
92
102
88
92
82
96
85
92
99
82
101
84
80
66
87
78
95
98
88
81
79
90
74
100
93
100
104
94
86
83
84
98
86
101
106
98
77
98
103
98
109
108
107
87
95
103
104
117
89
95
93
102
106
106
121
94
112
117
115
115
128
124
98
126
122
134
123
130
152
149
137
134
142
138
153
159
155
203
198
175
196
201
275
261
273
316
357
373
433
544
689
944
1197
1441
1997
3338
1900377
4379
9887
